('/home/walter/ownCloud/repos/passwordgenerator/build/main/main',
 True,
 False,
 True,
 None,
 None,
 False,
 False,
 None,
 True,
 'main.pkg',
 [('out00-PYZ.pyz',
   '/home/walter/ownCloud/repos/passwordgenerator/build/main/out00-PYZ.pyz',
   'PYZ'),
  ('_struct', '/usr/lib64/python2.7/lib-dynload/_struct.so', 'EXTENSION'),
  ('zlib', '/usr/lib64/python2.7/lib-dynload/zlibmodule.so', 'EXTENSION'),
  ('struct', '/usr/lib64/python2.7/struct.pyc', 'PYMODULE'),
  ('pyimod01_os_path',
   '/usr/lib/python2.7/site-packages/PyInstaller/loader/pyimod01_os_path.pyc',
   'PYMODULE'),
  ('pyimod02_archive',
   '/usr/lib/python2.7/site-packages/PyInstaller/loader/pyimod02_archive.pyc',
   'PYMODULE'),
  ('pyimod03_importers',
   '/usr/lib/python2.7/site-packages/PyInstaller/loader/pyimod03_importers.pyc',
   'PYMODULE'),
  ('pyiboot01_bootstrap',
   '/usr/lib/python2.7/site-packages/PyInstaller/loader/pyiboot01_bootstrap.py',
   'PYSOURCE'),
  ('pyi_rth_gdkpixbuf',
   '/usr/lib/python2.7/site-packages/PyInstaller/loader/rthooks/pyi_rth_gdkpixbuf.py',
   'PYSOURCE'),
  ('pyi_rth_gio',
   '/usr/lib/python2.7/site-packages/PyInstaller/loader/rthooks/pyi_rth_gio.py',
   'PYSOURCE'),
  ('pyi_rth_glib',
   '/usr/lib/python2.7/site-packages/PyInstaller/loader/rthooks/pyi_rth_glib.py',
   'PYSOURCE'),
  ('pyi_rth_gtk',
   '/usr/lib/python2.7/site-packages/PyInstaller/loader/rthooks/pyi_rth_gtk.py',
   'PYSOURCE'),
  ('pyi_rth_gi',
   '/usr/lib/python2.7/site-packages/PyInstaller/loader/rthooks/pyi_rth_gi.py',
   'PYSOURCE'),
  ('main',
   '/home/walter/ownCloud/repos/passwordgenerator/main.py',
   'PYSOURCE')],
 [],
 False,
 False,
 1501999384,
 [('run',
   '/usr/lib/python2.7/site-packages/PyInstaller/bootloader/Linux-64bit/run',
   'EXECUTABLE')])
